<?xml version="1.0"?>
<svg width="400" height="400" xmlns="http://www.w3.org/2000/svg" xmlns:svg="http://www.w3.org/2000/svg">
 <!-- Created with SVG-edit - http://svg-edit.googlecode.com/ -->
 <defs>
  <marker refY="50" refX="50" markerHeight="5" markerWidth="5" viewBox="0 0 100 100" se_type="leftarrow" orient="auto" markerUnits="strokeWidth" id="se_marker_start_svg_9">
   <path stroke-width="10" stroke="#333333" fill="#333333" d="m0,50l100,40l-30,-40l30,-40z"/>
  </marker>
  <marker refY="50" refX="50" markerHeight="5" markerWidth="5" viewBox="0 0 100 100" se_type="rightarrow" orient="auto" markerUnits="strokeWidth" id="se_marker_end_svg_9">
   <path stroke-width="10" stroke="#333333" fill="#333333" d="m100,50l-100,40l30,-40l-30,-40z"/>
  </marker>
  <marker refY="50" refX="50" markerHeight="5" markerWidth="5" viewBox="0 0 100 100" se_type="leftarrow" orient="auto" markerUnits="strokeWidth" id="se_marker_start_svg_11">
   <path stroke-width="10" stroke="#005fbf" fill="#005fbf" d="m0,50l100,40l-30,-40l30,-40z"/>
  </marker>
  <marker refY="50" refX="50" markerHeight="5" markerWidth="5" viewBox="0 0 100 100" se_type="rightarrow" orient="auto" markerUnits="strokeWidth" id="se_marker_end_svg_11">
   <path stroke-width="10" stroke="#005fbf" fill="#005fbf" d="m100,50l-100,40l30,-40l-30,-40z"/>
  </marker>
  <marker refY="50" refX="50" markerHeight="5" markerWidth="5" viewBox="0 0 100 100" se_type="leftarrow" orient="auto" markerUnits="strokeWidth" id="se_marker_start_svg_12">
   <path stroke-width="10" stroke="#005fbf" fill="#005fbf" d="m0,50l100,40l-30,-40l30,-40z"/>
  </marker>
  <marker refY="50" refX="50" markerHeight="5" markerWidth="5" viewBox="0 0 100 100" se_type="rightarrow" orient="auto" markerUnits="strokeWidth" id="se_marker_end_svg_12">
   <path stroke-width="10" stroke="#005fbf" fill="#005fbf" d="m100,50l-100,40l30,-40l-30,-40z"/>
  </marker>
  <marker refY="50" refX="50" markerHeight="5" markerWidth="5" viewBox="0 0 100 100" se_type="leftarrow" orient="auto" markerUnits="strokeWidth" id="se_marker_start_svg_19">
   <path stroke-width="10" stroke="#005fbf" fill="#005fbf" d="m0,50l100,40l-30,-40l30,-40z"/>
  </marker>
  <marker refY="50" refX="50" markerHeight="5" markerWidth="5" viewBox="0 0 100 100" se_type="rightarrow" orient="auto" markerUnits="strokeWidth" id="se_marker_end_svg_19">
   <path stroke-width="10" stroke="#005fbf" fill="#005fbf" d="m100,50l-100,40l30,-40l-30,-40z"/>
  </marker>
  <marker refY="50" refX="50" markerHeight="5" markerWidth="5" viewBox="0 0 100 100" se_type="leftarrow" orient="auto" markerUnits="strokeWidth" id="se_marker_start_svg_20">
   <path stroke-width="10" stroke="#005fbf" fill="#005fbf" d="m0,50l100,40l-30,-40l30,-40z"/>
  </marker>
  <marker refY="50" refX="50" markerHeight="5" markerWidth="5" viewBox="0 0 100 100" se_type="rightarrow" orient="auto" markerUnits="strokeWidth" id="se_marker_end_svg_20">
   <path stroke-width="10" stroke="#005fbf" fill="#005fbf" d="m100,50l-100,40l30,-40l-30,-40z"/>
  </marker>
  <marker refY="50" refX="50" markerHeight="5" markerWidth="5" viewBox="0 0 100 100" se_type="leftarrow" orient="auto" markerUnits="strokeWidth" id="se_marker_start_svg_25">
   <path stroke-width="10" stroke="#005fbf" fill="#005fbf" d="m0,50l100,40l-30,-40l30,-40z"/>
  </marker>
  <marker refY="50" refX="50" markerHeight="5" markerWidth="5" viewBox="0 0 100 100" se_type="rightarrow" orient="auto" markerUnits="strokeWidth" id="se_marker_end_svg_25">
   <path stroke-width="10" stroke="#005fbf" fill="#005fbf" d="m100,50l-100,40l30,-40l-30,-40z"/>
  </marker>
  <marker refY="50" refX="50" markerHeight="5" markerWidth="5" viewBox="0 0 100 100" se_type="leftarrow" orient="auto" markerUnits="strokeWidth" id="se_marker_start_svg_29">
   <path stroke-width="10" stroke="#005fbf" fill="#005fbf" d="m0,50l100,40l-30,-40l30,-40z"/>
  </marker>
  <marker refY="50" refX="50" markerHeight="5" markerWidth="5" viewBox="0 0 100 100" se_type="rightarrow" orient="auto" markerUnits="strokeWidth" id="se_marker_end_svg_29">
   <path stroke-width="10" stroke="#005fbf" fill="#005fbf" d="m100,50l-100,40l30,-40l-30,-40z"/>
  </marker>
 </defs>
 <g>
  <title>Layer 1</title>
  <rect stroke="#333333" id="svg_1" height="41.333334" width="190" y="85" x="110" stroke-width="2" fill="#bfbfbf"/>
  <rect stroke="#333333" transform="rotate(-90 206.55569458007815,207.66651916503906) " id="svg_15" height="62.666669" width="191.999997" y="176.333193" x="110.555687" stroke-width="2" fill="#bfbfbf"/>
  <rect stroke-opacity="0" id="svg_16" height="21.333333" width="112" y="104.083333" x="149.638875" stroke-linecap="null" stroke-linejoin="null" stroke-dasharray="null" stroke-width="2" stroke="#000000" fill="#bfbfbf"/>
  <rect stroke="#333333" id="svg_23" height="41.333334" width="147.999999" y="263.666664" x="131.02084" stroke-width="2" fill="#bfbfbf"/>
  <rect stroke="#000000" id="svg_24" stroke-opacity="0" height="21.333333" width="60.343751" y="257.583349" x="176.500003" stroke-linecap="null" stroke-linejoin="null" stroke-dasharray="null" stroke-width="2" fill="#bfbfbf"/>
 </g>
 <g display="none">
  <title>Calque 2</title>
  <line id="svg_9" marker-end="url(#se_marker_end_svg_9)" marker-start="url(#se_marker_start_svg_9)" y2="65" x2="300.999985" y1="65" x1="112.999985" stroke-linecap="null" stroke-linejoin="null" stroke-dasharray="null" stroke-width="2" stroke="#333333" fill="none"/>
 </g>
 <g>
  <title>Calque 3</title>
  <line marker-end="url(#se_marker_end_svg_11)" marker-start="url(#se_marker_start_svg_11)" id="svg_11" y2="68" x2="298.999989" y1="68" x1="108.999989" stroke-linecap="null" stroke-linejoin="null" stroke-dasharray="null" stroke-width="2" stroke="#005fbf" fill="none"/>
  <line stroke="#005fbf" transform="rotate(-90 89.29547119140626,194.49392700195312) " id="svg_12" marker-end="url(#se_marker_end_svg_12)" marker-start="url(#se_marker_start_svg_12)" y2="194.49393" x2="196.301546" y1="194.49393" x1="-17.710582" stroke-linecap="null" stroke-linejoin="null" stroke-dasharray="null" stroke-width="2" fill="none"/>
  <text font-weight="bold" stroke="#005fbf" transform="matrix(0.6627634763717651,0,0,0.5471698045730591,65.02341721206903,21.056604087352753) " xml:space="preserve" text-anchor="middle" font-family="Sans-serif" font-size="24" id="svg_13" y="64.801757" x="208.553034" stroke-linecap="null" stroke-linejoin="null" stroke-dasharray="null" stroke-width="0" fill="#005fbf">b</text>
  <text id="svg_14" font-weight="bold" stroke="#005fbf" transform="matrix(0.6627634763717651,0,0,0.5471698045730591,65.02341721206903,21.056604087352753) " xml:space="preserve" text-anchor="middle" font-family="Sans-serif" font-size="24" y="320.42456" x="57.236213" stroke-linecap="null" stroke-linejoin="null" stroke-dasharray="null" stroke-width="0" fill="#005fbf">h</text>
  <text id="svg_17" font-weight="bold" stroke="#005fbf" transform="matrix(0.6627634763717651,0,0,0.5471698045730591,65.02341721206903,21.056604087352753) " xml:space="preserve" text-anchor="middle" font-family="Sans-serif" font-size="24" y="580.771687" x="210.209503" stroke-linecap="null" stroke-linejoin="null" stroke-dasharray="null" stroke-width="0" fill="#005fbf">b</text>
  <text style="cursor: move;" id="svg_18" font-weight="bold" stroke="#005fbf" transform="matrix(0.39468066210316266,0,0,0.3387680754180593,158.01172880156662,85.33910568181676) " xml:space="preserve" text-anchor="middle" font-family="Sans-serif" font-size="24" y="760.945817" x="135.110377" stroke-linecap="null" stroke-linejoin="null" stroke-dasharray="null" stroke-width="0" fill="#005fbf">1</text>
  <line stroke="#005fbf" id="svg_19" marker-end="url(#se_marker_end_svg_19)" marker-start="url(#se_marker_start_svg_19)" y2="321.333328" x2="273.833342" y1="321.333328" x1="135.833331" stroke-linecap="null" stroke-linejoin="null" stroke-dasharray="null" stroke-width="2" fill="none"/>
  <line stroke="#005fbf" id="svg_20" transform="rotate(-90 318.33334350585943,106.33333587646483) " marker-end="url(#se_marker_end_svg_20)" marker-start="url(#se_marker_start_svg_20)" y2="106.333336" x2="337.339413" y1="106.333336" x1="299.327273" stroke-linecap="null" stroke-linejoin="null" stroke-dasharray="null" stroke-width="2" fill="none"/>
  <text id="svg_21" font-weight="bold" stroke="#005fbf" transform="matrix(0.6627634763717651,0,0,0.5471698045730591,65.02341721206903,21.056604087352753) " xml:space="preserve" text-anchor="middle" font-family="Sans-serif" font-size="24" y="164.079776" x="403.335925" stroke-linecap="null" stroke-linejoin="null" stroke-dasharray="null" stroke-width="0" fill="#005fbf">h</text>
  <text id="svg_22" font-weight="bold" stroke="#005fbf" transform="matrix(0.39468066210316266,0,0,0.3387680754180593,158.01172880156662,85.33910568181676) " xml:space="preserve" text-anchor="middle" font-family="Sans-serif" font-size="24" y="87.848148" x="461.963757" stroke-linecap="null" stroke-linejoin="null" stroke-dasharray="null" stroke-width="0" fill="#005fbf">0</text>
  <line id="svg_25" stroke="#005fbf" transform="rotate(-90 314.33334350585943,284.33331298828125) " marker-end="url(#se_marker_end_svg_25)" marker-start="url(#se_marker_start_svg_25)" y2="284.333336" x2="333.339402" y1="284.333336" x1="295.327262" stroke-linecap="null" stroke-linejoin="null" stroke-dasharray="null" stroke-width="2" fill="none"/>
  <text id="svg_26" font-weight="bold" stroke="#005fbf" transform="matrix(0.6627634763717651,0,0,0.5471698045730591,65.02341721206903,21.056604087352753) " xml:space="preserve" text-anchor="middle" font-family="Sans-serif" font-size="24" y="490.665038" x="395.957688" stroke-linecap="null" stroke-linejoin="null" stroke-dasharray="null" stroke-width="0" fill="#005fbf">h</text>
  <text id="svg_27" font-weight="bold" stroke="#005fbf" transform="matrix(0.39468066210316266,0,0,0.3387680754180593,158.01172880156662,85.33910568181676) " xml:space="preserve" text-anchor="middle" font-family="Sans-serif" font-size="24" y="618.292445" x="449.573928" stroke-linecap="null" stroke-linejoin="null" stroke-dasharray="null" stroke-width="0" fill="#005fbf">1</text>
  <text id="svg_28" font-weight="bold" stroke="#005fbf" transform="matrix(0.39468066210316266,0,0,0.3387680754180593,158.01172880156662,85.33910568181676) " xml:space="preserve" text-anchor="middle" font-family="Sans-serif" font-size="24" y="-71.556927" x="134.266657" stroke-linecap="null" stroke-linejoin="null" stroke-dasharray="null" stroke-width="0" fill="#005fbf">0</text>
  <line stroke="#005fbf" id="svg_29" marker-end="url(#se_marker_end_svg_29)" marker-start="url(#se_marker_start_svg_29)" y2="180.75" x2="232.249994" y1="180.75" x1="181.749999" stroke-linecap="null" stroke-linejoin="null" stroke-dasharray="null" stroke-width="2" fill="none"/>
  <text style="cursor: move;" id="svg_30" font-weight="bold" stroke="#005fbf" transform="matrix(0.6627634763717651,0,0,0.5471698045730591,65.02341721206903,21.056604087352753) " xml:space="preserve" text-anchor="middle" font-family="Sans-serif" font-size="24" y="326.135795" x="214.154939" stroke-linecap="null" stroke-linejoin="null" stroke-dasharray="null" stroke-width="0" fill="#005fbf">t</text>
 </g>
</svg>